2023-08-23 10:46:45.275 +07:00 [INF] Now listening on: https://localhost:7104
2023-08-23 10:46:45.309 +07:00 [INF] Now listening on: http://localhost:5130
2023-08-23 10:46:45.312 +07:00 [INF] Application started. Press Ctrl+C to shut down.
2023-08-23 10:46:45.312 +07:00 [INF] Hosting environment: Development
2023-08-23 10:46:45.313 +07:00 [INF] Content root path: D:\Concept\Udemy\.NET\API_User\API_User_Solution\API_User
2023-08-23 10:46:47.409 +07:00 [INF] Request starting HTTP/2 GET https://localhost:7104/swagger/index.html - -
2023-08-23 10:46:47.777 +07:00 [INF] Request finished HTTP/2 GET https://localhost:7104/swagger/index.html - - - 200 - text/html;charset=utf-8 374.0640ms
2023-08-23 10:46:47.807 +07:00 [INF] Request starting HTTP/2 GET https://localhost:7104/_framework/aspnetcore-browser-refresh.js - -
2023-08-23 10:46:47.807 +07:00 [INF] Request starting HTTP/2 GET https://localhost:7104/_vs/browserLink - -
2023-08-23 10:46:47.833 +07:00 [INF] Request finished HTTP/2 GET https://localhost:7104/_framework/aspnetcore-browser-refresh.js - - - 200 11986 application/javascript;+charset=utf-8 25.7118ms
2023-08-23 10:46:47.872 +07:00 [INF] Request finished HTTP/2 GET https://localhost:7104/_vs/browserLink - - - 200 - text/javascript;+charset=UTF-8 65.5100ms
2023-08-23 10:46:48.786 +07:00 [INF] Request starting HTTP/2 GET https://localhost:7104/swagger/v1/swagger.json - -
2023-08-23 10:46:48.928 +07:00 [INF] Request finished HTTP/2 GET https://localhost:7104/swagger/v1/swagger.json - - - 200 - application/json;charset=utf-8 141.1546ms
