2023-08-23 10:27:57.613 +07:00 [INF] Now listening on: https://localhost:7104
2023-08-23 10:27:57.640 +07:00 [INF] Now listening on: http://localhost:5130
2023-08-23 10:27:57.642 +07:00 [INF] Application started. Press Ctrl+C to shut down.
2023-08-23 10:27:57.644 +07:00 [INF] Hosting environment: Development
2023-08-23 10:27:57.644 +07:00 [INF] Content root path: D:\Concept\Udemy\.NET\API_User\API_User_Solution\API_User
